clase,temperatura,humedad,ruido
4,1,26,189
4,14,6,133
4,3,24,102
4,12,21,109
4,14,22,168
4,14,13,128
4,15,26,116
4,4,34,162
4,14,17,151
4,0,34,102
4,10,23,142
4,2,28,112
4,13,5,128
4,7,0,172
4,3,17,153
4,11,21,153
4,0,6,171
4,12,24,189
4,15,14,157
4,4,22,143
4,7,22,118
4,12,3,195
4,13,9,192
4,15,26,158
4,9,26,147
4,7,12,107
4,3,14,125
4,15,31,184
4,5,21,100
4,10,24,107
4,5,8,87
4,9,17,126
4,10,34,174
4,13,32,117
4,13,34,89
4,5,35,121
4,9,27,151
4,8,10,132
4,10,17,142
4,7,31,138
4,11,5,145
4,11,2,156
4,5,5,185
4,13,14,157
4,7,5,183
4,11,23,150
4,10,22,171
4,14,11,169
4,7,2,150
4,13,33,169
4,15,32,191
4,7,14,164
4,13,26,155
4,2,25,112
4,11,9,180
4,1,34,172
4,0,12,153
4,12,29,199
4,5,7,113
4,1,21,100
4,4,32,134
4,0,24,109
4,4,31,127
4,15,33,139
4,14,6,187
4,2,29,122
4,7,11,185
4,3,2,106
4,8,17,171
4,2,31,136
4,3,34,178
4,1,28,120
4,14,24,98
4,2,8,101
4,10,12,152
4,14,9,88
4,0,0,100
4,12,35,90
4,5,27,144
4,13,6,147
4,9,0,136
4,6,8,119
4,13,6,153
4,10,17,88
4,4,1,151
4,0,14,96
4,0,20,162
4,13,22,108
4,6,13,189
4,5,15,182
4,10,3,106
4,8,9,165
4,13,14,148
4,6,32,161
4,11,35,121
4,7,5,161
4,2,31,119
4,8,18,138
4,10,20,177
4,12,21,150
4,7,31,143
4,4,11,104
4,14,10,137
4,6,14,125
4,12,28,92
4,7,28,193
4,5,13,112
4,14,34,100
4,11,12,98
4,15,9,93
4,12,32,167
4,9,4,194
4,12,3,193
4,6,29,160
4,10,35,130
4,5,25,113
4,5,30,127
4,10,33,141
4,10,9,168
4,2,31,101
4,3,2,138
4,8,13,175
4,0,27,108
4,12,27,117
4,7,32,162
4,14,35,150
4,15,18,191
4,5,19,128
4,3,32,187
4,6,18,174
4,4,25,141
4,4,28,121
4,11,26,197
4,12,31,128
4,7,25,122
4,14,34,155
4,12,9,91
4,8,20,162
4,6,0,111
4,8,4,93
4,6,11,172
4,15,33,197
4,5,17,131
4,3,8,191
4,2,1,96
4,13,27,134
4,6,21,190
4,7,11,105
4,4,26,89
4,2,29,113