clase,temperatura,humedad,ruido
2,57,184,63
2,43,149,52
2,82,151,8
2,36,195,83
2,54,163,25
2,52,82,10
2,62,109,72
2,58,90,11
2,99,89,83
2,67,112,31
2,52,88,83
2,61,150,68
2,87,118,48
2,97,84,13
2,59,83,49
2,52,90,75
2,92,99,14
2,93,126,84
2,65,183,34
2,39,182,77
2,54,188,48
2,93,181,3
2,93,116,32
2,89,80,32
2,73,71,68
2,68,117,38
2,99,179,2
2,100,100,69
2,77,144,26
2,96,84,56
2,40,94,1
2,63,129,64
2,92,150,46
2,76,130,82
2,91,107,45
2,63,184,62
2,81,182,48
2,45,112,47
2,72,94,69
2,64,193,3
2,94,109,54
2,94,103,36
2,97,137,43
2,99,165,37
2,72,119,17
2,79,88,23
2,97,96,51
2,53,107,0
2,64,146,69
2,95,80,58
2,49,97,13
2,100,113,24
2,70,179,50
2,53,114,68
2,92,187,25
2,50,111,39
2,40,118,10
2,55,144,8
2,97,81,60
2,46,87,78
2,91,127,12
2,87,111,76
2,54,76,7
2,95,181,59
2,83,114,4
2,95,81,51
2,100,100,2
2,76,196,65
2,59,161,20
2,95,170,40
2,55,130,76
2,78,156,74
2,66,186,59
2,41,106,61
2,82,123,71
2,35,194,64
2,45,166,56
2,36,176,30
2,62,195,17
2,82,111,76
2,45,164,22
2,82,102,77
2,42,75,41
2,90,186,26
2,65,91,16
2,39,180,57
2,97,187,46
2,49,162,68
2,98,175,75
2,97,90,15
2,47,124,62
2,39,92,16
2,93,155,81
2,70,171,46
2,84,147,76
2,39,198,72
2,96,85,34
2,41,133,63
2,83,116,30
2,59,180,25
2,87,100,2
2,77,73,52
2,49,152,6
2,82,136,80
2,35,128,80
2,66,84,72
2,50,176,2
2,75,100,20
2,42,175,15
2,41,140,67
2,54,167,1
2,69,168,81
2,90,166,25
2,43,172,83
2,92,89,62
2,81,114,70
2,45,114,35
2,90,101,51
2,88,199,36
2,35,118,45
2,64,116,9
2,35,133,83
2,37,119,70
2,100,112,67
2,35,133,45
2,88,110,22
2,54,188,8
2,89,127,80
2,57,73,13
2,77,191,0
2,93,161,84
2,87,188,56
2,62,142,80
2,68,131,29
2,83,191,68
2,58,183,50
2,92,196,71
2,97,159,21
2,62,79,44
2,89,80,51
2,99,114,24
2,40,176,64
2,87,146,16
2,77,139,25
2,86,143,58
2,78,109,39
2,73,124,60
2,62,98,57
2,36,185,25
2,58,135,45